<?xml version="1.0" encoding="UTF-8"?>
<svg width="105.79" height="107.3" fill="#0078d6" version="1.1" xmlns="http://www.w3.org/2000/svg" xmlns:cc="http://creativecommons.org/ns#" xmlns:dc="http://purl.org/dc/elements/1.1/" xmlns:rdf="http://www.w3.org/1999/02/22-rdf-syntax-ns#">
 <metadata>
  <rdf:RDF>
   <cc:Work rdf:about="">
    <dc:format>image/svg+xml</dc:format>
    <dc:type rdf:resource="http://purl.org/dc/dcmitype/StillImage"/>
    <dc:title/>
   </cc:Work>
  </rdf:RDF>
 </metadata>
 <g transform="translate(109.69 -62.238)" fill="#0078d6">
  <polygon transform="matrix(2.5353 0 0 2.5353 -109.69 62.238)" points="18.502 20.219 41.727 20.219 41.727 0 18.502 3.389"/>
  <polygon transform="matrix(2.5353 0 0 2.5353 -109.69 62.238)" points="16.865 20.219 16.865 3.627 0 6.087 0 20.219"/>
  <polygon transform="matrix(2.5353 0 0 2.5353 -109.69 62.238)" points="16.865 21.855 0 21.855 0 36.167 16.865 38.655"/>
  <polygon transform="matrix(2.5353 0 0 2.5353 -109.69 62.238)" points="18.502 21.855 18.502 38.897 41.727 42.323 41.727 21.855"/>
 </g>
</svg>
